<?xml version="1.0" encoding="UTF-8" standalone="no"?>
<!-- Created with Inkscape (http://www.inkscape.org/) -->

<svg
   xmlns:dc="http://purl.org/dc/elements/1.1/"
   xmlns:cc="http://creativecommons.org/ns#"
   xmlns:rdf="http://www.w3.org/1999/02/22-rdf-syntax-ns#"
   xmlns:svg="http://www.w3.org/2000/svg"
   xmlns="http://www.w3.org/2000/svg"
   xmlns:xlink="http://www.w3.org/1999/xlink"
   xmlns:sodipodi="http://sodipodi.sourceforge.net/DTD/sodipodi-0.dtd"
   xmlns:inkscape="http://www.inkscape.org/namespaces/inkscape"
   width="210mm"
   height="297mm"
   viewBox="0 0 210 297"
   version="1.1"
   id="svg8"
   inkscape:version="0.92.5 (unknown)"
   sodipodi:docname="stump02.svg"
   inkscape:export-filename="/home/slade/Pictures/stump01.png"
   inkscape:export-xdpi="299.95847"
   inkscape:export-ydpi="299.95847">
  <defs
     id="defs2">
    <linearGradient
       inkscape:collect="always"
       id="linearGradient4702">
      <stop
         style="stop-color:#000000;stop-opacity:1;"
         offset="0"
         id="stop4698" />
      <stop
         style="stop-color:#000000;stop-opacity:0;"
         offset="1"
         id="stop4700" />
    </linearGradient>
    <linearGradient
       inkscape:collect="always"
       xlink:href="#linearGradient4702"
       id="linearGradient4704"
       x1="108.85714"
       y1="57.741063"
       x2="307.67262"
       y2="57.741063"
       gradientUnits="userSpaceOnUse"
       gradientTransform="translate(-96.761905,-9.0714286)" />
  </defs>
  <sodipodi:namedview
     id="base"
     pagecolor="#ffffff"
     bordercolor="#666666"
     borderopacity="1.0"
     inkscape:pageopacity="0.0"
     inkscape:pageshadow="2"
     inkscape:zoom="0.35"
     inkscape:cx="113.75139"
     inkscape:cy="511.38462"
     inkscape:document-units="mm"
     inkscape:current-layer="layer1"
     showgrid="false"
     inkscape:window-width="1278"
     inkscape:window-height="779"
     inkscape:window-x="1"
     inkscape:window-y="20"
     inkscape:window-maximized="0" />
  <metadata
     id="metadata5">
    <rdf:RDF>
      <cc:Work
         rdf:about="">
        <dc:format>image/svg+xml</dc:format>
        <dc:type
           rdf:resource="http://purl.org/dc/dcmitype/StillImage" />
        <dc:title></dc:title>
      </cc:Work>
    </rdf:RDF>
  </metadata>
  <g
     inkscape:label="Layer 1"
     inkscape:groupmode="layer"
     id="layer1">
    <flowRoot
       xml:space="preserve"
       id="flowRoot276"
       style="fill:black;fill-opacity:1;stroke:none;font-family:'Latin Modern Roman';font-style:normal;font-weight:normal;font-size:40px;line-height:1.25;letter-spacing:0px;word-spacing:0px;-inkscape-font-specification:'Latin Modern Roman, ';font-stretch:normal;font-variant:normal;"><flowRegion
         id="flowRegion278"
         style="-inkscape-font-specification:'Latin Modern Roman, ';font-family:'Latin Modern Roman';font-weight:normal;font-style:normal;font-stretch:normal;font-variant:normal;"><rect
           id="rect280"
           width="948.57141"
           height="705.71429"
           x="-1222.8572"
           y="-177.48035"
           style="-inkscape-font-specification:'Latin Modern Roman, ';font-family:'Latin Modern Roman';font-weight:normal;font-style:normal;font-stretch:normal;font-variant:normal;" /></flowRegion><flowPara
         id="flowPara282" /></flowRoot>    <flowRoot
       xml:space="preserve"
       id="flowRoot352"
       style="fill:black;fill-opacity:1;stroke:none;font-family:'IBM Plex Serif';font-style:normal;font-weight:normal;font-size:40px;line-height:1.25;letter-spacing:0px;word-spacing:0px;-inkscape-font-specification:'IBM Plex Serif';font-stretch:normal;font-variant:normal;"><flowRegion
         id="flowRegion354"
         style="-inkscape-font-specification:'IBM Plex Serif';font-family:'IBM Plex Serif';font-weight:normal;font-style:normal;font-stretch:normal;font-variant:normal;"><rect
           id="rect356"
           width="1205.7142"
           height="588.57141"
           x="48.57143"
           y="-446.05179"
           style="-inkscape-font-specification:'IBM Plex Serif';font-family:'IBM Plex Serif';font-weight:normal;font-style:normal;font-stretch:normal;font-variant:normal;" /></flowRegion><flowPara
         id="flowPara358" /></flowRoot>    <g
       id="g238">
      <path
         id="path364"
         style="font-style:normal;font-variant:normal;font-weight:normal;font-stretch:normal;font-size:180.6222229px;line-height:1.25;font-family:'IBM Plex Serif';-inkscape-font-specification:'IBM Plex Serif';letter-spacing:0px;word-spacing:0px;fill:#916f6f;fill-opacity:1;stroke:none;stroke-width:0.21984185"
         d="m 9.382215,105.54437 c -0.9391578,-2.61423 -0.8307512,-5.713489 0.1934559,-9.144032 0.8289101,-3.039334 2.5698421,-6.171524 5.0489511,-9.314589 2.281247,-2.798851 5.136957,-5.499405 8.433913,-8.077403 3.051206,-2.320364 6.61333,-4.47813 10.567891,-6.476339 3.492492,-1.764727 6.959737,-3.229063 10.43155,-4.44516 3.228322,-1.112302 6.272888,-2.021171 9.183685,-2.757183 2.770155,-0.687467 5.371615,-1.228643 7.845466,-1.640654 2.366808,-0.394185 4.498298,-0.677326 6.4315,-0.858426 0,0 0.645716,0.614255 0.645716,0.614255 -1.941284,0.234477 -3.899051,0.560793 -5.891466,0.986954 -2.080145,0.444931 -4.155332,0.987732 -6.239835,1.639751 -2.204164,0.689438 -4.384896,1.48756 -6.551052,2.408972 -2.318657,0.986276 -4.572502,2.097862 -6.760169,3.352424 0,0 -4.6581,2.671269 -4.6581,2.671269 -2.732691,1.567116 -5.34007,3.29285 -7.800321,5.197518 -2.644178,2.058279 -4.987808,4.238268 -6.964779,6.539743 -2.09955,2.485143 -3.69544,5.044715 -4.691589,7.656311 -1.183238,2.92468 -1.493294,5.712465 -0.805553,8.278389 0,0 -8.4192557,3.3682 -8.4192557,3.3682 0,0 0,0 0,0"
         inkscape:connector-curvature="0" />
      <path
         id="path366"
         style="font-style:normal;font-variant:normal;font-weight:normal;font-stretch:normal;font-size:180.6222229px;line-height:1.25;font-family:'IBM Plex Serif';-inkscape-font-specification:'IBM Plex Serif';letter-spacing:0px;word-spacing:0px;fill:#916f6f;fill-opacity:1;stroke:none;stroke-width:0.21984185"
         d="m 57.370546,109.13254 c -2.537886,-2.70835 -4.409522,-5.92702 -5.63947,-9.496984 -1.163971,-3.165421 -1.536547,-6.434427 -1.226758,-9.721132 0.344956,-2.929683 1.290078,-5.761843 2.727048,-8.470318 1.372703,-2.44005 3.328547,-4.714138 5.755155,-6.824598 2.144395,-1.865013 4.458117,-3.416127 6.93566,-4.707751 2.316543,-1.182116 4.591401,-2.150347 6.851751,-2.936844 2.159998,-0.735075 4.255486,-1.315914 6.313959,-1.760639 1.96973,-0.425546 3.789647,-0.733375 5.488609,-0.933096 0,0 0.996661,0.641977 0.996661,0.641977 -1.67252,0.255764 -3.301865,0.608005 -4.899941,1.065192 -1.668151,0.477235 -3.269033,1.057087 -4.808761,1.751451 -1.627715,0.734046 -3.163804,1.581787 -4.607229,2.558478 -1.544546,1.045124 -2.947972,2.22088 -4.19772,3.545651 0,0 -2.65935,2.818975 -2.65935,2.818975 -1.559053,1.652638 -2.898883,3.469697 -3.986233,5.472055 -1.160774,2.16245 -1.962218,4.449155 -2.343028,6.859365 -0.378023,2.600532 -0.238008,5.274374 0.494893,7.997663 0.75697,3.047645 2.240747,5.946655 4.512839,8.608705 0,0 -5.708085,3.53185 -5.708085,3.53185 0,0 0,0 0,0"
         inkscape:connector-curvature="0" />
      <path
         id="path368"
         style="font-style:normal;font-variant:normal;font-weight:normal;font-stretch:normal;font-size:180.6222229px;line-height:1.25;font-family:'IBM Plex Serif';-inkscape-font-specification:'IBM Plex Serif';letter-spacing:0px;word-spacing:0px;fill:#916f6f;fill-opacity:1;stroke:none;stroke-width:0.21984185"
         d="m 104.37669,112.64727 c -4.07239,-2.79817 -7.847751,-6.13106 -11.249115,-9.83474 -3.08721,-3.286622 -5.503163,-6.687452 -7.294659,-10.112878 -1.533957,-3.05631 -2.445804,-6.016091 -2.819629,-8.851342 -0.263875,-2.556546 0.123588,-4.94404 1.056268,-7.164101 0.824713,-1.963075 2.007992,-3.599152 3.510267,-4.964776 1.421461,-1.250591 2.940171,-2.277107 4.561125,-3.113201 1.559883,-0.781854 3.157492,-1.401705 4.807055,-1.878601 1.578715,-0.456418 3.091708,-0.788558 4.559868,-1.00661 0,0 1.34234,0.669267 1.34234,0.669267 -1.40779,0.276706 -2.71374,0.654467 -3.923634,1.142175 -1.262734,0.509011 -2.397062,1.125269 -3.401151,1.861249 -1.061223,0.777858 -1.964131,1.674284 -2.698095,2.705204 -0.785138,1.102798 -1.354861,2.341408 -1.685868,3.734871 0,0 -0.703904,2.963298 -0.703904,2.963298 -0.412383,1.736076 -0.515104,3.642126 -0.26405,5.739552 0.2836,2.263682 0.981788,4.653931 2.150976,7.169473 1.291336,2.712118 3.11211,5.496258 5.516554,8.32715 2.629682,3.16587 5.841982,6.17159 9.638332,8.92566 0,0 -3.10268,3.68835 -3.10268,3.68835 0,0 0,0 0,0"
         inkscape:connector-curvature="0" />
      <path
         id="path370"
         style="font-style:normal;font-variant:normal;font-weight:normal;font-stretch:normal;font-size:180.6222229px;line-height:1.25;font-family:'IBM Plex Serif';-inkscape-font-specification:'IBM Plex Serif';letter-spacing:0px;word-spacing:0px;fill:#916f6f;fill-opacity:1;stroke:none;stroke-width:0.21984185"
         d="m 106.94606,108.91859 c 3.27004,-2.21607 5.88674,-4.77025 7.87543,-7.57045 1.82824,-2.490818 3.07594,-5.021492 3.80504,-7.559749 0.64701,-2.356815 0.84691,-4.660632 0.657,-6.902495 -0.18771,-2.079028 -0.69063,-4.022239 -1.46927,-5.84485 0,0 -1.33001,-3.113227 -1.33001,-3.113227 -0.62583,-1.464923 -1.45986,-2.813478 -2.48302,-4.061329 -0.95721,-1.167435 -2.05744,-2.227835 -3.2937,-3.195628 -1.17087,-0.916597 -2.44953,-1.734619 -3.83715,-2.466404 -1.33106,-0.70195 -2.73802,-1.309274 -4.22892,-1.831897 0,0 1.22414,-0.45104 1.22414,-0.45104 1.53821,0.473311 3.14393,1.069578 4.84026,1.802391 1.76982,0.764577 3.49586,1.662545 5.19486,2.715199 1.84674,1.122799 3.5891,2.416094 5.23513,3.914165 1.83486,1.632771 3.38477,3.481789 4.62024,5.597707 1.39586,2.390605 2.25337,4.857041 2.46319,7.385214 0.27575,2.800859 -0.0184,5.637537 -0.9838,8.469866 -1.00741,3.178421 -2.67756,6.237147 -5.08568,9.080287 -2.64257,3.22398 -5.74781,6.02458 -9.27617,8.24671 0,0 -3.92758,-4.21447 -3.92758,-4.21447"
         inkscape:connector-curvature="0" />
      <path
         id="path372"
         style="font-style:normal;font-variant:normal;font-weight:normal;font-stretch:normal;font-size:180.6222229px;line-height:1.25;font-family:'IBM Plex Serif';-inkscape-font-specification:'IBM Plex Serif';letter-spacing:0px;word-spacing:0px;fill:#916f6f;fill-opacity:1;stroke:none;stroke-width:0.21984185"
         d="m 150.50575,112.21321 c 1.6729,-2.31411 2.52568,-4.97826 2.63862,-7.89754 0.15593,-2.59903 -0.25599,-5.238897 -1.15832,-7.886272 -0.86647,-2.459711 -2.11911,-4.863735 -3.69894,-7.202834 -1.47683,-2.170441 -3.16488,-4.198699 -5.03671,-6.100622 0,0 -3.19939,-3.250833 -3.19939,-3.250833 -1.50639,-1.530613 -3.13558,-2.938946 -4.87952,-4.241355 -1.63203,-1.218854 -3.33145,-2.325171 -5.1007,-3.33402 -1.67604,-0.955694 -3.39154,-1.807665 -5.15529,-2.568773 -1.69216,-0.730203 -3.39614,-1.360821 -5.12569,-1.902203 0,0 0.8647,-0.479508 0.8647,-0.479508 1.74294,0.489434 3.62665,1.107576 5.68124,1.868516 2.14327,0.793779 4.32905,1.727578 6.58631,2.823555 2.43945,1.16854 4.88743,2.515979 7.37278,4.07801 2.74606,1.701615 5.35928,3.630238 7.84353,5.83866 2.80509,2.493642 5.15129,5.067421 6.9277,7.706919 2.0071,2.921846 3.50149,5.881345 4.36376,8.836959 1.03789,3.313581 1.38068,6.502621 0.89932,9.468051 -0.46304,3.35923 -1.62095,6.27814 -3.53257,8.59688 0,0 -6.29083,-4.35359 -6.29083,-4.35359"
         inkscape:connector-curvature="0" />
      <path
         id="path374"
         style="font-style:normal;font-variant:normal;font-weight:normal;font-stretch:normal;font-size:180.6222229px;line-height:1.25;font-family:'IBM Plex Serif';-inkscape-font-specification:'IBM Plex Serif';letter-spacing:0px;word-spacing:0px;fill:#916f6f;fill-opacity:1;stroke:none;stroke-width:0.21984185"
         d="m 193.2382,115.44526 c 0.13449,-2.40811 -0.71407,-5.17791 -2.41309,-8.21178 -1.46196,-2.70338 -3.48185,-5.44872 -5.96704,-8.20167 -2.33693,-2.559437 -5.00263,-5.060729 -7.93631,-7.494351 -2.73398,-2.259427 -5.57901,-4.370578 -8.5191,-6.349887 0,0 -5.02862,-3.385315 -5.02862,-3.385315 -2.36908,-1.594899 -4.77788,-3.061774 -7.22895,-4.417657 -2.29452,-1.269291 -4.58248,-2.420674 -6.87551,-3.469827 -2.17272,-0.994105 -4.3179,-1.879441 -6.45175,-2.669386 -2.04756,-0.758001 -4.04395,-1.411532 -6.0085,-1.971364 0,0 0.51054,-0.507558 0.51054,-0.507558 1.94462,0.505319 4.1021,1.144981 6.50944,1.933593 2.51083,0.822508 5.14895,1.791535 7.95524,2.93009 3.02207,1.213463 6.16324,2.614055 9.47259,4.238811 3.63993,1.769084 7.2953,3.775657 11.00226,6.074541 4.18327,2.59426 7.98348,5.272722 11.28793,8.020615 3.6934,3.039447 6.92709,6.118116 9.56398,9.193125 3.02038,3.44421 5.3109,6.75891 6.69078,9.84203 1.6386,3.48909 2.35521,6.52137 1.99768,8.93249 0,0 -8.56157,-4.4865 -8.56157,-4.4865"
         inkscape:connector-curvature="0" />
      <path
         id="path50"
         style="font-style:normal;font-variant:normal;font-weight:bold;font-stretch:normal;font-size:180.6222229px;line-height:1.25;font-family:'TeX Gyre Bonum';-inkscape-font-specification:'TeX Gyre Bonum Bold';letter-spacing:0px;word-spacing:0px;fill:#483737;fill-opacity:1;stroke:none;stroke-width:0.32928249"
         d="m 180.99378,238.61071 c 0,0 10.01393,-2.73182 10.01393,-2.73182 0,0 -3.93869,-0.7099 -3.93869,-0.7099 -6.40541,-1.15451 -9.46555,-2.30075 -9.27164,-3.44361 0,0 19.44712,-105.78167 19.44712,-105.78167 0,0 -49.59104,-9.3556 -49.59104,-9.3556 -48.609599,3.57829 -93.475473,1.52192 -138.5304358,-5.0578 0,0 18.2937238,36.53054 18.2937238,36.53054 0,0 69.57257,12.84329 69.57257,12.84329 0,0 16.555142,27.42034 16.555142,27.42034 0,0 -54.038711,21.41826 -54.038711,21.41826 -4.247732,1.66884 -5.072172,1.41222 -17.322026,-0.68765 0,0 4.189854,5.33812 4.189854,5.33812 0,0 56.160663,10.10301 56.160663,10.10301 0,0 1.77446,-4.24383 1.77446,-4.24383 0,0 -2.99273,-0.53941 -2.99273,-0.53941 -7.487732,-1.34957 -11.205409,-2.34431 -11.140414,-3.05145 0.02552,-0.27765 0.585404,-0.63513 1.963167,-1.03112 0,0 31.552347,-9.93104 31.552347,-9.93104 0,0 9.01493,17.25022 9.01493,17.25022 0.42839,0.7198 0.5011,1.1899 0.22876,1.42214 -0.69364,0.59151 -4.73262,0.18717 -12.43881,-1.20178 0,0 -2.23894,-0.40355 -2.23894,-0.40355 0,0 -3.10665,3.99939 -3.10665,3.99939 0,0 65.84344,11.8449 65.84344,11.8449"
         inkscape:connector-curvature="0" />
    </g>
  </g>
</svg>
